…
[20] "reserved_room_type"            
[21] "assigned_room_type"            
[22] "booking_changes"               
[23] "deposit_type"                  
[24] "agent"                         
[25] "company"                       
[26] "days_in_waiting_list"          
[27] "customer_type"                 
[28] "adr"                           
[29] "required_car_parking_spaces"   
[30] "total_of_special_requests"     
[31] "reservation_status"            
[32] "reservation_status_date"       
> arrange(hotel_bookings, adr)
# A tibble: 119,390 × 32
   hotel        is_canceled lead_time arrival_date_year
   <chr>              <dbl>     <dbl>             <dbl>
 1 Resort Hotel           0       195              2017
 2 Resort Hotel           0       342              2015
 3 Resort Hotel           0       737              2015
 4 Resort Hotel           0        32              2015
 5 Resort Hotel           0       111              2015
 6 Resort Hotel           0         0              2015
 7 Resort Hotel           0         8              2015
 8 Resort Hotel           0         8              2015
 9 Resort Hotel           1        57              2015
10 Resort Hotel           0        57              2015
# ℹ 119,380 more rows
# ℹ 28 more variables: arrival_date_month <chr>,
#   arrival_date_week_number <dbl>,
#   arrival_date_day_of_month <dbl>,
#   stays_in_weekend_nights <dbl>,
#   stays_in_week_nights <dbl>, adults <dbl>,
#   children <dbl>, babies <dbl>, meal <chr>, …
# ℹ Use `print(n = ...)` to see more rows
> arrange(hotel_bookings, lead_time)
# A tibble: 119,390 × 32
   hotel        is_canceled lead_time arrival_date_year
   <chr>              <dbl>     <dbl>             <dbl>
 1 Resort Hotel           0         0              2015
 2 Resort Hotel           0         0              2015
 3 Resort Hotel           0         0              2015
 4 Resort Hotel           0         0              2015
 5 Resort Hotel           0         0              2015
 6 Resort Hotel           0         0              2015
 7 Resort Hotel           0         0              2015
 8 Resort Hotel           0         0              2015
 9 Resort Hotel           0         0              2015
10 Resort Hotel           0         0              2015
# ℹ 119,380 more rows
# ℹ 28 more variables: arrival_date_month <chr>,
#   arrival_date_week_number <dbl>,
#   arrival_date_day_of_month <dbl>,
#   stays_in_weekend_nights <dbl>,
#   stays_in_week_nights <dbl>, adults <dbl>,
#   children <dbl>, babies <dbl>, meal <chr>, …
# ℹ Use `print(n = ...)` to see more rows
> arrange(hotel_bookings, desc(lead_time))
# A tibble: 119,390 × 32
   hotel        is_canceled lead_time arrival_date_year
   <chr>              <dbl>     <dbl>             <dbl>
 1 Resort Hotel           0       737              2015
 2 Resort Hotel           0       709              2016
 3 City Hotel             1       629              2017
 4 City Hotel             1       629              2017
 5 City Hotel             1       629              2017
 6 City Hotel             1       629              2017
 7 City Hotel             1       629              2017
 8 City Hotel             1       629              2017
 9 City Hotel             1       629              2017
10 City Hotel             1       629              2017
# ℹ 119,380 more rows
# ℹ 28 more variables: arrival_date_month <chr>,
#   arrival_date_week_number <dbl>,
#   arrival_date_day_of_month <dbl>,
#   stays_in_weekend_nights <dbl>,
#   stays_in_week_nights <dbl>, adults <dbl>,
#   children <dbl>, babies <dbl>, meal <chr>, …
# ℹ Use `print(n = ...)` to see more rows
…
